simulation/qsim/Relogio.msim.vcd
$comment
	File created using the following command:
		vcd file Relogio.msim.vcd -direction
$end
$date
	Mon Oct 12 21:21:24 2020
$end
$version
	ModelSim Version 10.5b
$end
$timescale
	1ps
$end

$scope module relogio_vhd_vec_tst $end
$var wire 1 ! CLOCK_50 $end
$var wire 1 " decodeR [10] $end
$var wire 1 # decodeR [9] $end
$var wire 1 $ decodeR [8] $end
$var wire 1 % decodeR [7] $end
$var wire 1 & decodeR [6] $end
$var wire 1 ' decodeR [5] $end
$var wire 1 ( decodeR [4] $end
$var wire 1 ) decodeR [3] $end
$var wire 1 * decodeR [2] $end
$var wire 1 + decodeR [1] $end
$var wire 1 , decodeR [0] $end
$var wire 1 - HEX0 [6] $end
$var wire 1 . HEX0 [5] $end
$var wire 1 / HEX0 [4] $end
$var wire 1 0 HEX0 [3] $end
$var wire 1 1 HEX0 [2] $end
$var wire 1 2 HEX0 [1] $end
$var wire 1 3 HEX0 [0] $end
$var wire 1 4 HEX1 [6] $end
$var wire 1 5 HEX1 [5] $end
$var wire 1 6 HEX1 [4] $end
$var wire 1 7 HEX1 [3] $end
$var wire 1 8 HEX1 [2] $end
$var wire 1 9 HEX1 [1] $end
$var wire 1 : HEX1 [0] $end
$var wire 1 ; HEX2 [6] $end
$var wire 1 < HEX2 [5] $end
$var wire 1 = HEX2 [4] $end
$var wire 1 > HEX2 [3] $end
$var wire 1 ? HEX2 [2] $end
$var wire 1 @ HEX2 [1] $end
$var wire 1 A HEX2 [0] $end
$var wire 1 B HEX3 [6] $end
$var wire 1 C HEX3 [5] $end
$var wire 1 D HEX3 [4] $end
$var wire 1 E HEX3 [3] $end
$var wire 1 F HEX3 [2] $end
$var wire 1 G HEX3 [1] $end
$var wire 1 H HEX3 [0] $end
$var wire 1 I HEX4 [6] $end
$var wire 1 J HEX4 [5] $end
$var wire 1 K HEX4 [4] $end
$var wire 1 L HEX4 [3] $end
$var wire 1 M HEX4 [2] $end
$var wire 1 N HEX4 [1] $end
$var wire 1 O HEX4 [0] $end
$var wire 1 P HEX5 [6] $end
$var wire 1 Q HEX5 [5] $end
$var wire 1 R HEX5 [4] $end
$var wire 1 S HEX5 [3] $end
$var wire 1 T HEX5 [2] $end
$var wire 1 U HEX5 [1] $end
$var wire 1 V HEX5 [0] $end
$var wire 1 W KEY [3] $end
$var wire 1 X KEY [2] $end
$var wire 1 Y KEY [1] $end
$var wire 1 Z KEY [0] $end
$var wire 1 [ LEDR [7] $end
$var wire 1 \ LEDR [6] $end
$var wire 1 ] LEDR [5] $end
$var wire 1 ^ LEDR [4] $end
$var wire 1 _ LEDR [3] $end
$var wire 1 ` LEDR [2] $end
$var wire 1 a LEDR [1] $end
$var wire 1 b LEDR [0] $end
$var wire 1 c SW [7] $end
$var wire 1 d SW [6] $end
$var wire 1 e SW [5] $end
$var wire 1 f SW [4] $end
$var wire 1 g SW [3] $end
$var wire 1 h SW [2] $end
$var wire 1 i SW [1] $end
$var wire 1 j SW [0] $end

$scope module i1 $end
$var wire 1 k gnd $end
$var wire 1 l vcc $end
$var wire 1 m unknown $end
$var wire 1 n devoe $end
$var wire 1 o devclrn $end
$var wire 1 p devpor $end
$var wire 1 q ww_devoe $end
$var wire 1 r ww_devclrn $end
$var wire 1 s ww_devpor $end
$var wire 1 t ww_CLOCK_50 $end
$var wire 1 u ww_SW [7] $end
$var wire 1 v ww_SW [6] $end
$var wire 1 w ww_SW [5] $end
$var wire 1 x ww_SW [4] $end
$var wire 1 y ww_SW [3] $end
$var wire 1 z ww_SW [2] $end
$var wire 1 { ww_SW [1] $end
$var wire 1 | ww_SW [0] $end
$var wire 1 } ww_KEY [3] $end
$var wire 1 ~ ww_KEY [2] $end
$var wire 1 !! ww_KEY [1] $end
$var wire 1 "! ww_KEY [0] $end
$var wire 1 #! ww_HEX0 [6] $end
$var wire 1 $! ww_HEX0 [5] $end
$var wire 1 %! ww_HEX0 [4] $end
$var wire 1 &! ww_HEX0 [3] $end
$var wire 1 '! ww_HEX0 [2] $end
$var wire 1 (! ww_HEX0 [1] $end
$var wire 1 )! ww_HEX0 [0] $end
$var wire 1 *! ww_HEX1 [6] $end
$var wire 1 +! ww_HEX1 [5] $end
$var wire 1 ,! ww_HEX1 [4] $end
$var wire 1 -! ww_HEX1 [3] $end
$var wire 1 .! ww_HEX1 [2] $end
$var wire 1 /! ww_HEX1 [1] $end
$var wire 1 0! ww_HEX1 [0] $end
$var wire 1 1! ww_HEX2 [6] $end
$var wire 1 2! ww_HEX2 [5] $end
$var wire 1 3! ww_HEX2 [4] $end
$var wire 1 4! ww_HEX2 [3] $end
$var wire 1 5! ww_HEX2 [2] $end
$var wire 1 6! ww_HEX2 [1] $end
$var wire 1 7! ww_HEX2 [0] $end
$var wire 1 8! ww_HEX3 [6] $end
$var wire 1 9! ww_HEX3 [5] $end
$var wire 1 :! ww_HEX3 [4] $end
$var wire 1 ;! ww_HEX3 [3] $end
$var wire 1 <! ww_HEX3 [2] $end
$var wire 1 =! ww_HEX3 [1] $end
$var wire 1 >! ww_HEX3 [0] $end
$var wire 1 ?! ww_HEX4 [6] $end
$var wire 1 @! ww_HEX4 [5] $end
$var wire 1 A! ww_HEX4 [4] $end
$var wire 1 B! ww_HEX4 [3] $end
$var wire 1 C! ww_HEX4 [2] $end
$var wire 1 D! ww_HEX4 [1] $end
$var wire 1 E! ww_HEX4 [0] $end
$var wire 1 F! ww_HEX5 [6] $end
$var wire 1 G! ww_HEX5 [5] $end
$var wire 1 H! ww_HEX5 [4] $end
$var wire 1 I! ww_HEX5 [3] $end
$var wire 1 J! ww_HEX5 [2] $end
$var wire 1 K! ww_HEX5 [1] $end
$var wire 1 L! ww_HEX5 [0] $end
$var wire 1 M! ww_LEDR [7] $end
$var wire 1 N! ww_LEDR [6] $end
$var wire 1 O! ww_LEDR [5] $end
$var wire 1 P! ww_LEDR [4] $end
$var wire 1 Q! ww_LEDR [3] $end
$var wire 1 R! ww_LEDR [2] $end
$var wire 1 S! ww_LEDR [1] $end
$var wire 1 T! ww_LEDR [0] $end
$var wire 1 U! ww_decodeR [10] $end
$var wire 1 V! ww_decodeR [9] $end
$var wire 1 W! ww_decodeR [8] $end
$var wire 1 X! ww_decodeR [7] $end
$var wire 1 Y! ww_decodeR [6] $end
$var wire 1 Z! ww_decodeR [5] $end
$var wire 1 [! ww_decodeR [4] $end
$var wire 1 \! ww_decodeR [3] $end
$var wire 1 ]! ww_decodeR [2] $end
$var wire 1 ^! ww_decodeR [1] $end
$var wire 1 _! ww_decodeR [0] $end
$var wire 1 `! \SW[0]~input_o\ $end
$var wire 1 a! \SW[1]~input_o\ $end
$var wire 1 b! \SW[2]~input_o\ $end
$var wire 1 c! \SW[3]~input_o\ $end
$var wire 1 d! \SW[4]~input_o\ $end
$var wire 1 e! \SW[5]~input_o\ $end
$var wire 1 f! \SW[6]~input_o\ $end
$var wire 1 g! \SW[7]~input_o\ $end
$var wire 1 h! \KEY[0]~input_o\ $end
$var wire 1 i! \KEY[1]~input_o\ $end
$var wire 1 j! \KEY[2]~input_o\ $end
$var wire 1 k! \KEY[3]~input_o\ $end
$var wire 1 l! \~QUARTUS_CREATED_GND~I_combout\ $end
$var wire 1 m! \CLOCK_50~input_o\ $end
$var wire 1 n! \CLOCK_50~inputCLKENA0_outclk\ $end
$var wire 1 o! \CPU|FD|somaUm|Add0~1_sumout\ $end
$var wire 1 p! \CPU|FD|somaUm|Add0~6\ $end
$var wire 1 q! \CPU|FD|somaUm|Add0~9_sumout\ $end
$var wire 1 r! \CPU|FD|somaUm|Add0~14\ $end
$var wire 1 s! \CPU|FD|somaUm|Add0~37_sumout\ $end
$var wire 1 t! \CPU|FD|somaUm|Add0~38\ $end
$var wire 1 u! \CPU|FD|somaUm|Add0~33_sumout\ $end
$var wire 1 v! \CPU|FD|somaUm|Add0~34\ $end
$var wire 1 w! \CPU|FD|somaUm|Add0~29_sumout\ $end
$var wire 1 x! \CPU|FD|somaUm|Add0~30\ $end
$var wire 1 y! \CPU|FD|somaUm|Add0~25_sumout\ $end
$var wire 1 z! \CPU|FD|somaUm|Add0~26\ $end
$var wire 1 {! \CPU|FD|somaUm|Add0~21_sumout\ $end
$var wire 1 |! \CPU|FD|somaUm|Add0~22\ $end
$var wire 1 }! \CPU|FD|somaUm|Add0~17_sumout\ $end
$var wire 1 ~! \CPU|FD|ROM|memROM~4_combout\ $end
$var wire 1 !" \CPU|FD|MuxProxPC|saida_MUX[9]~2_combout\ $end
$var wire 1 "" \CPU|FD|ROM|memROM~0_combout\ $end
$var wire 1 #" \CPU|FD|ROM|memROM~1_combout\ $end
$var wire 1 $" \CPU|FD|bancoReg|registrador~148_combout\ $end
$var wire 1 %" \CPU|FD|bancoReg|registrador~134_q\ $end
$var wire 1 &" \CPU|FD|endRegA[0]~1_combout\ $end
$var wire 1 '" \CPU|FD|endRegA[1]~0_combout\ $end
$var wire 1 (" \CPU|FD|bancoReg|registrador~143_combout\ $end
$var wire 1 )" \CPU|FD|ROM|memROM~2_combout\ $end
$var wire 1 *" \CPU|FD|bancoReg|registrador~147_combout\ $end
$var wire 1 +" \CPU|FD|bancoReg|registrador~29_q\ $end
$var wire 1 ," \CPU|FD|bancoReg|registrador~146_combout\ $end
$var wire 1 -" \CPU|FD|bancoReg|registrador~13_q\ $end
$var wire 1 ." \CPU|FD|bancoReg|registrador~145_combout\ $end
$var wire 1 /" \CPU|FD|bancoReg|registrador~21_q\ $end
$var wire 1 0" \CPU|FD|bancoReg|registrador~142_combout\ $end
$var wire 1 1" \CPU|FD|bancoReg|registrador~30_q\ $end
$var wire 1 2" \CPU|FD|bancoReg|registrador~14_q\ $end
$var wire 1 3" \CPU|FD|bancoReg|registrador~22_q\ $end
$var wire 1 4" \CPU|FD|bancoReg|registrador~144_combout\ $end
$var wire 1 5" \CPU|FD|muxULA_Imediato|saida_MUX[0]~0_combout\ $end
$var wire 1 6" \CPU|FD|muxULA_Imediato|saida_MUX[0]~1_combout\ $end
$var wire 1 7" \CPU|FD|bancoReg|registrador~133_q\ $end
$var wire 1 8" \CPU|FD|bancoReg|registrador~141_combout\ $end
$var wire 1 9" \CPU|FD|MuxProxPC|saida_MUX[2]~1_combout\ $end
$var wire 1 :" \CPU|FD|PC|DOUT[2]~DUPLICATE_q\ $end
$var wire 1 ;" \CPU|FD|somaUm|Add0~10\ $end
$var wire 1 <" \CPU|FD|somaUm|Add0~13_sumout\ $end
$var wire 1 =" \CPU|FD|ROM|memROM~3_combout\ $end
$var wire 1 >" \CPU|UC|selMuxProxPC~0_combout\ $end
$var wire 1 ?" \CPU|FD|MuxProxPC|saida_MUX[0]~0_combout\ $end
$var wire 1 @" \CPU|FD|PC|DOUT[0]~DUPLICATE_q\ $end
$var wire 1 A" \CPU|FD|somaUm|Add0~2\ $end
$var wire 1 B" \CPU|FD|somaUm|Add0~5_sumout\ $end
$var wire 1 C" \CPU|FD|ROM|memROM~5_combout\ $end
$var wire 1 D" \CPU|FD|PC|DOUT\ [9] $end
$var wire 1 E" \CPU|FD|PC|DOUT\ [8] $end
$var wire 1 F" \CPU|FD|PC|DOUT\ [7] $end
$var wire 1 G" \CPU|FD|PC|DOUT\ [6] $end
$var wire 1 H" \CPU|FD|PC|DOUT\ [5] $end
$var wire 1 I" \CPU|FD|PC|DOUT\ [4] $end
$var wire 1 J" \CPU|FD|PC|DOUT\ [3] $end
$var wire 1 K" \CPU|FD|PC|DOUT\ [2] $end
$var wire 1 L" \CPU|FD|PC|DOUT\ [1] $end
$var wire 1 M" \CPU|FD|PC|DOUT\ [0] $end
$var wire 1 N" \CPU|FD|PC|ALT_INV_DOUT[2]~DUPLICATE_q\ $end
$var wire 1 O" \CPU|FD|PC|ALT_INV_DOUT[0]~DUPLICATE_q\ $end
$var wire 1 P" \CPU|FD|ROM|ALT_INV_memROM~5_combout\ $end
$var wire 1 Q" \CPU|FD|ALT_INV_endRegA[0]~1_combout\ $end
$var wire 1 R" \CPU|FD|muxULA_Imediato|ALT_INV_saida_MUX[0]~0_combout\ $end
$var wire 1 S" \CPU|FD|ROM|ALT_INV_memROM~4_combout\ $end
$var wire 1 T" \CPU|UC|ALT_INV_selMuxProxPC~0_combout\ $end
$var wire 1 U" \CPU|FD|bancoReg|ALT_INV_registrador~144_combout\ $end
$var wire 1 V" \CPU|FD|bancoReg|ALT_INV_registrador~30_q\ $end
$var wire 1 W" \CPU|FD|bancoReg|ALT_INV_registrador~22_q\ $end
$var wire 1 X" \CPU|FD|bancoReg|ALT_INV_registrador~14_q\ $end
$var wire 1 Y" \CPU|FD|bancoReg|ALT_INV_registrador~143_combout\ $end
$var wire 1 Z" \CPU|FD|bancoReg|ALT_INV_registrador~134_q\ $end
$var wire 1 [" \CPU|FD|bancoReg|ALT_INV_registrador~142_combout\ $end
$var wire 1 \" \CPU|FD|bancoReg|ALT_INV_registrador~29_q\ $end
$var wire 1 ]" \CPU|FD|bancoReg|ALT_INV_registrador~21_q\ $end
$var wire 1 ^" \CPU|FD|bancoReg|ALT_INV_registrador~13_q\ $end
$var wire 1 _" \CPU|FD|bancoReg|ALT_INV_registrador~141_combout\ $end
$var wire 1 `" \CPU|FD|ALT_INV_endRegA[1]~0_combout\ $end
$var wire 1 a" \CPU|FD|bancoReg|ALT_INV_registrador~133_q\ $end
$var wire 1 b" \CPU|FD|ROM|ALT_INV_memROM~3_combout\ $end
$var wire 1 c" \CPU|FD|ROM|ALT_INV_memROM~2_combout\ $end
$var wire 1 d" \CPU|FD|ROM|ALT_INV_memROM~0_combout\ $end
$var wire 1 e" \CPU|FD|PC|ALT_INV_DOUT\ [9] $end
$var wire 1 f" \CPU|FD|PC|ALT_INV_DOUT\ [8] $end
$var wire 1 g" \CPU|FD|PC|ALT_INV_DOUT\ [7] $end
$var wire 1 h" \CPU|FD|PC|ALT_INV_DOUT\ [6] $end
$var wire 1 i" \CPU|FD|PC|ALT_INV_DOUT\ [5] $end
$var wire 1 j" \CPU|FD|PC|ALT_INV_DOUT\ [4] $end
$var wire 1 k" \CPU|FD|PC|ALT_INV_DOUT\ [3] $end
$var wire 1 l" \CPU|FD|PC|ALT_INV_DOUT\ [2] $end
$var wire 1 m" \CPU|FD|PC|ALT_INV_DOUT\ [1] $end
$var wire 1 n" \CPU|FD|PC|ALT_INV_DOUT\ [0] $end
$var wire 1 o" \CPU|FD|somaUm|ALT_INV_Add0~17_sumout\ $end
$var wire 1 p" \CPU|FD|somaUm|ALT_INV_Add0~9_sumout\ $end
$var wire 1 q" \CPU|FD|somaUm|ALT_INV_Add0~1_sumout\ $end
$upscope $end
$upscope $end
$enddefinitions $end
#0
$dumpvars
0!
0k
1l
xm
1n
1o
1p
1q
1r
1s
0t
0`!
0a!
0b!
0c!
0d!
0e!
0f!
0g!
0h!
0i!
0j!
0k!
xl!
0m!
0n!
1o!
0p!
0q!
0r!
0s!
0t!
0u!
0v!
0w!
0x!
0y!
0z!
0{!
0|!
0}!
0~!
0!"
1""
1#"
0$"
0%"
1&"
1'"
0("
0)"
0*"
0+"
0,"
0-"
1."
0/"
00"
01"
02"
03"
04"
15"
16"
07"
08"
09"
0:"
0;"
0<"
0="
0>"
1?"
0@"
0A"
0B"
1C"
1N"
1O"
0P"
0Q"
0R"
1S"
1T"
1U"
1V"
1W"
1X"
1Y"
1Z"
1["
1\"
1]"
1^"
1_"
0`"
1a"
1b"
1c"
0d"
1o"
1p"
0q"
0W
0X
0Y
0Z
0c
0d
0e
0f
0g
0h
0i
0j
0u
0v
0w
0x
0y
0z
0{
0|
0}
0~
0!!
0"!
1#!
0$!
0%!
0&!
0'!
0(!
0)!
1*!
0+!
0,!
0-!
0.!
0/!
00!
11!
02!
03!
04!
05!
06!
07!
18!
09!
0:!
0;!
0<!
0=!
0>!
1?!
0@!
0A!
0B!
0C!
0D!
0E!
1F!
0G!
0H!
0I!
0J!
0K!
0L!
0M!
0N!
0O!
0P!
0Q!
0R!
0S!
0T!
0U!
0V!
0W!
0X!
0Y!
0Z!
0[!
0\!
0]!
1^!
1_!
0D"
0E"
0F"
0G"
0H"
0I"
0J"
0K"
0L"
0M"
1e"
1f"
1g"
1h"
1i"
1j"
1k"
1l"
1m"
1n"
0"
0#
0$
0%
0&
0'
0(
0)
0*
1+
1,
1-
0.
0/
00
01
02
03
14
05
06
07
08
09
0:
1;
0<
0=
0>
0?
0@
0A
1B
0C
0D
0E
0F
0G
0H
1I
0J
0K
0L
0M
0N
0O
1P
0Q
0R
0S
0T
0U
0V
0[
0\
0]
0^
0_
0`
0a
0b
$end
#10000
1!
1t
1m!
1n!
1M"
1/"
13"
1@"
0O"
0W"
0]"
0n"
1~!
0o!
1A"
1*"
0."
1q"
0S"
1B"
0?"
#20000
0!
0t
0m!
0n!
#30000
1!
1t
1m!
1n!
0M"
1+"
11"
0@"
1L"
0m"
1O"
0V"
0\"
1n"
05"
1o!
0A"
0B"
1p!
0#"
1$"
0'"
1)"
0*"
0c"
1`"
0q"
1R"
1q!
1B"
0p!
1?"
10"
14"
06"
0p"
0q!
0U"
0["
1Z!
1W!
1U!
0^!
19"
1p"
15"
0+
1'
1$
1"
09"
0R"
16"
#40000
0!
0t
0m!
0n!
#50000
1!
1t
1m!
1n!
1M"
17"
1@"
0O"
0a"
0n"
0~!
0$"
1'"
0C"
0o!
1A"
0)"
1="
0b"
1c"
1q"
1P"
0`"
1S"
0B"
1p!
00"
04"
18"
0?"
05"
06"
1>"
1q!
0T"
1R"
0_"
1U"
1["
1V!
0Z!
0W!
0U!
0_!
0p"
0>"
0,
0'
0$
1#
0"
19"
1T"
#60000
0!
0t
0m!
0n!
#70000
1!
1t
1m!
1n!
1K"
0M"
1:"
0@"
0L"
1m"
1O"
0N"
1n"
0l"
1,"
0q!
1;"
0&"
1o!
0A"
1B"
0p!
0'"
0="
1b"
1`"
0q"
1Q"
1p"
1q!
0;"
0B"
1<"
1?"
08"
09"
0p"
0<"
1_"
0V!
19"
0#
#80000
0!
0t
0m!
0n!
#90000
1!
1t
1m!
1n!
1M"
1@"
0O"
0n"
0o!
1A"
1q"
1B"
0?"
#100000
0!
0t
0m!
0n!
#110000
1!
1t
1m!
1n!
0M"
0@"
1L"
0m"
1O"
1n"
1o!
0A"
0B"
1p!
0q"
0q!
1;"
1B"
0p!
1?"
1p"
1q!
0;"
1<"
09"
0p"
0<"
19"
#120000
0!
0t
0m!
0n!
#130000
1!
1t
1m!
1n!
1M"
1@"
0O"
0n"
0o!
1A"
1q"
0B"
1p!
0?"
0q!
1;"
1p"
1<"
09"
#140000
0!
0t
0m!
0n!
#150000
1!
1t
1m!
1n!
0K"
0M"
0:"
1J"
0@"
0L"
1m"
1O"
0k"
1N"
1n"
1l"
1q!
0;"
0<"
1r!
1o!
0A"
1B"
0p!
0q"
0p"
0q!
0B"
1s!
1<"
0r!
19"
1?"
1p"
0s!
09"
#160000
0!
0t
0m!
0n!
#170000
1!
1t
1m!
1n!
1M"
1@"
0O"
0n"
0o!
1A"
1q"
1B"
0?"
#180000
0!
0t
0m!
0n!
#190000
1!
1t
1m!
1n!
0M"
0@"
1L"
0m"
1O"
1n"
1o!
0A"
0B"
1p!
0q"
1q!
1B"
0p!
1?"
0p"
0q!
19"
1p"
09"
#200000
0!
0t
0m!
0n!
#210000
1!
1t
1m!
1n!
1M"
1@"
0O"
0n"
0o!
1A"
1q"
0B"
1p!
0?"
1q!
0p"
19"
#220000
0!
0t
0m!
0n!
#230000
1!
1t
1m!
1n!
1K"
0M"
1:"
0@"
0L"
1m"
1O"
0N"
1n"
0l"
0q!
1;"
1o!
0A"
1B"
0p!
0q"
1p"
1q!
0;"
0B"
0<"
1r!
09"
1?"
0p"
1s!
1<"
0r!
19"
0s!
#240000
0!
0t
0m!
0n!
#250000
1!
1t
1m!
1n!
1M"
1@"
0O"
0n"
0o!
1A"
1q"
1B"
0?"
#260000
0!
0t
0m!
0n!
#270000
1!
1t
1m!
1n!
0M"
0@"
1L"
0m"
1O"
1n"
1o!
0A"
0B"
1p!
0q"
0q!
1;"
1B"
0p!
1?"
1p"
1q!
0;"
0<"
1r!
09"
0p"
1s!
1<"
0r!
19"
0s!
#280000
0!
0t
0m!
0n!
#290000
1!
1t
1m!
1n!
1M"
1@"
0O"
0n"
0o!
1A"
1q"
0B"
1p!
0?"
0q!
1;"
1p"
0<"
1r!
09"
1s!
#300000
0!
0t
0m!
0n!
#310000
1!
1t
1m!
1n!
0K"
1I"
0M"
0:"
0J"
0@"
0L"
1m"
1O"
1k"
1N"
1n"
0j"
1l"
0s!
1t!
0""
1q!
0;"
1<"
0r!
1&"
0,"
1o!
0A"
1B"
0p!
1#"
1'"
1."
1C"
0P"
0`"
0q"
0Q"
0p"
1d"
0q!
0B"
1s!
0t!
0<"
1u!
0#"
0&"
0'"
1,"
0."
0C"
19"
18"
16"
1?"
1p"
0u!
0_"
1P"
1`"
1Q"
1_!
1^!
09"
08"
06"
1,
1+
1_"
0_!
0^!
0,
0+
#320000
0!
0t
0m!
0n!
#330000
1!
1t
1m!
1n!
1M"
1@"
0O"
0n"
1~!
0o!
1A"
1q"
0S"
1B"
0?"
#340000
0!
0t
0m!
0n!
#350000
1!
1t
1m!
1n!
0M"
0@"
1L"
0m"
1O"
1n"
1o!
0A"
0B"
1p!
0q"
1q!
1B"
0p!
1?"
0p"
0q!
19"
1p"
09"
#360000
0!
0t
0m!
0n!
#370000
1!
1t
1m!
1n!
1M"
1@"
0O"
0n"
0~!
0o!
1A"
1q"
1S"
0B"
1p!
0?"
1q!
0p"
19"
#380000
0!
0t
0m!
0n!
#390000
1!
1t
1m!
1n!
1K"
0M"
1:"
0@"
0L"
1m"
1O"
0N"
1n"
0l"
0q!
1;"
1o!
0A"
1B"
0p!
0q"
1p"
1q!
0;"
0B"
1<"
09"
1?"
0p"
0<"
19"
#400000
0!
0t
0m!
0n!
#410000
1!
1t
1m!
1n!
1M"
1@"
0O"
0n"
0o!
1A"
1q"
1B"
0?"
#420000
0!
0t
0m!
0n!
#430000
1!
1t
1m!
1n!
0M"
0@"
1L"
0m"
1O"
1n"
1o!
0A"
0B"
1p!
0q"
0q!
1;"
1B"
0p!
1?"
1p"
1q!
0;"
1<"
09"
0p"
0<"
19"
#440000
0!
0t
0m!
0n!
#450000
1!
1t
1m!
1n!
1M"
1@"
0O"
0n"
0o!
1A"
1q"
0B"
1p!
0?"
0q!
1;"
1p"
1<"
09"
#460000
0!
0t
0m!
0n!
#470000
1!
1t
1m!
1n!
0K"
0M"
0:"
1J"
0@"
0L"
1m"
1O"
0k"
1N"
1n"
1l"
1q!
0;"
0<"
1r!
1o!
0A"
1B"
0p!
0q"
0p"
0q!
0B"
0s!
1t!
1<"
0r!
19"
1?"
1p"
1s!
0t!
1u!
09"
0u!
#480000
0!
0t
0m!
0n!
#490000
1!
1t
1m!
1n!
1M"
1@"
0O"
0n"
0o!
1A"
1q"
1B"
0?"
#500000
0!
0t
0m!
0n!
#510000
1!
1t
1m!
1n!
0M"
0@"
1L"
0m"
1O"
1n"
1o!
0A"
0B"
1p!
0q"
1q!
1B"
0p!
1?"
0p"
0q!
19"
1p"
09"
#520000
0!
0t
0m!
0n!
#530000
1!
1t
1m!
1n!
1M"
1@"
0O"
0n"
0o!
1A"
1q"
0B"
1p!
0?"
1q!
0p"
19"
#540000
0!
0t
0m!
0n!
#550000
1!
1t
1m!
1n!
1K"
0M"
1:"
0@"
0L"
1m"
1O"
0N"
1n"
0l"
0q!
1;"
1o!
0A"
1B"
0p!
0q"
1p"
1q!
0;"
0B"
0<"
1r!
09"
1?"
0p"
0s!
1t!
1<"
0r!
19"
1s!
0t!
1u!
0u!
#560000
0!
0t
0m!
0n!
#570000
1!
1t
1m!
1n!
1M"
1@"
0O"
0n"
0o!
1A"
1q"
1B"
0?"
#580000
0!
0t
0m!
0n!
#590000
1!
1t
1m!
1n!
0M"
0@"
1L"
0m"
1O"
1n"
1o!
0A"
0B"
1p!
0q"
0q!
1;"
1B"
0p!
1?"
1p"
1q!
0;"
0<"
1r!
09"
0p"
0s!
1t!
1<"
0r!
19"
1s!
0t!
1u!
0u!
#600000
0!
0t
0m!
0n!
#610000
1!
1t
1m!
1n!
1M"
1@"
0O"
0n"
0o!
1A"
1q"
0B"
1p!
0?"
0q!
1;"
1p"
0<"
1r!
09"
0s!
1t!
1u!
#620000
0!
0t
0m!
0n!
#630000
1!
1t
1m!
1n!
0K"
0I"
1H"
0M"
0:"
0J"
0@"
0L"
1m"
1O"
1k"
1N"
1n"
0i"
1j"
1l"
1s!
0t!
0u!
1v!
1q!
0;"
1<"
0r!
1o!
0A"
1B"
0p!
0q"
0p"
0q!
0B"
0s!
0<"
1w!
1u!
0v!
19"
1?"
1p"
0w!
09"
#640000
0!
0t
0m!
0n!
#650000
1!
1t
1m!
1n!
1M"
1@"
0O"
0n"
1~!
0o!
1A"
1q"
0S"
1B"
0?"
#660000
0!
0t
0m!
0n!
#670000
1!
1t
1m!
1n!
0M"
0@"
1L"
0m"
1O"
1n"
1o!
0A"
0B"
1p!
0q"
1q!
1B"
0p!
1?"
0p"
0q!
19"
1p"
09"
#680000
0!
0t
0m!
0n!
#690000
1!
1t
1m!
1n!
1M"
1@"
0O"
0n"
0~!
0o!
1A"
1q"
1S"
0B"
1p!
0?"
1q!
0p"
19"
#700000
0!
0t
0m!
0n!
#710000
1!
1t
1m!
1n!
1K"
0M"
1:"
0@"
0L"
1m"
1O"
0N"
1n"
0l"
0q!
1;"
1o!
0A"
1B"
0p!
0q"
1p"
1q!
0;"
0B"
1<"
09"
1?"
0p"
0<"
19"
#720000
0!
0t
0m!
0n!
#730000
1!
1t
1m!
1n!
1M"
1@"
0O"
0n"
0o!
1A"
1q"
1B"
0?"
#740000
0!
0t
0m!
0n!
#750000
1!
1t
1m!
1n!
0M"
0@"
1L"
0m"
1O"
1n"
1o!
0A"
0B"
1p!
0q"
0q!
1;"
1B"
0p!
1?"
1p"
1q!
0;"
1<"
09"
0p"
0<"
19"
#760000
0!
0t
0m!
0n!
#770000
1!
1t
1m!
1n!
1M"
1@"
0O"
0n"
0o!
1A"
1q"
0B"
1p!
0?"
0q!
1;"
1p"
1<"
09"
#780000
0!
0t
0m!
0n!
#790000
1!
1t
1m!
1n!
0K"
0M"
0:"
1J"
0@"
0L"
1m"
1O"
0k"
1N"
1n"
1l"
1q!
0;"
0<"
1r!
1o!
0A"
1B"
0p!
0q"
0p"
0q!
0B"
1s!
1<"
0r!
19"
1?"
1p"
0s!
09"
#800000
0!
0t
0m!
0n!
#810000
1!
1t
1m!
1n!
1M"
1@"
0O"
0n"
0o!
1A"
1q"
1B"
0?"
#820000
0!
0t
0m!
0n!
#830000
1!
1t
1m!
1n!
0M"
0@"
1L"
0m"
1O"
1n"
1o!
0A"
0B"
1p!
0q"
1q!
1B"
0p!
1?"
0p"
0q!
19"
1p"
09"
#840000
0!
0t
0m!
0n!
#850000
1!
1t
1m!
1n!
1M"
1@"
0O"
0n"
0o!
1A"
1q"
0B"
1p!
0?"
1q!
0p"
19"
#860000
0!
0t
0m!
0n!
#870000
1!
1t
1m!
1n!
1K"
0M"
1:"
0@"
0L"
1m"
1O"
0N"
1n"
0l"
0q!
1;"
1o!
0A"
1B"
0p!
0q"
1p"
1q!
0;"
0B"
0<"
1r!
09"
1?"
0p"
1s!
1<"
0r!
19"
0s!
#880000
0!
0t
0m!
0n!
#890000
1!
1t
1m!
1n!
1M"
1@"
0O"
0n"
0o!
1A"
1q"
1B"
0?"
#900000
0!
0t
0m!
0n!
#910000
1!
1t
1m!
1n!
0M"
0@"
1L"
0m"
1O"
1n"
1o!
0A"
0B"
1p!
0q"
0q!
1;"
1B"
0p!
1?"
1p"
1q!
0;"
0<"
1r!
09"
0p"
1s!
1<"
0r!
19"
0s!
#920000
0!
0t
0m!
0n!
#930000
1!
1t
1m!
1n!
1M"
1@"
0O"
0n"
0o!
1A"
1q"
0B"
1p!
0?"
0q!
1;"
1p"
0<"
1r!
09"
1s!
#940000
0!
0t
0m!
0n!
#950000
1!
1t
1m!
1n!
0K"
1I"
0M"
0:"
0J"
0@"
0L"
1m"
1O"
1k"
1N"
1n"
0j"
1l"
0s!
1t!
1q!
0;"
1<"
0r!
1o!
0A"
1B"
0p!
0q"
0p"
0q!
0B"
1s!
0t!
0<"
0u!
1v!
19"
1?"
1p"
1w!
1u!
0v!
09"
0w!
#960000
0!
0t
0m!
0n!
#970000
1!
1t
1m!
1n!
1M"
1@"
0O"
0n"
1~!
0o!
1A"
1q"
0S"
1B"
0?"
#980000
0!
0t
0m!
0n!
#990000
1!
1t
1m!
1n!
0M"
0@"
1L"
0m"
1O"
1n"
1o!
0A"
0B"
1p!
0q"
1q!
1B"
0p!
1?"
0p"
0q!
19"
1p"
09"
